Unidad 2
…
---
# English Grammar Profile

### Hay que filtrar por las categorías que solo tienen la *SuperCategory* *PAST*

```r
engGrPr %>%
    filter(SuperCategory == "PAST")
```

```
## # A tibble: 93 x 8
##      `#` SuperCategory SubCategory Level `Lexical Range` guideword
##    <dbl> <chr>         <chr>       <chr> <chr>           <chr>    
##  1   844 PAST          past simple A1    1               FORM: AF…
##  2   845 PAST          past simple A1    N/A             USE: EVE…
##  3   846 PAST          past conti… A2    N/A             FORM: AF…
##  4   847 PAST          past conti… A2    1               FORM: WI…
##  5   848 PAST          past conti… A2    N/A             USE: BAC…
##  6   849 PAST          past conti… A2    N/A             USE: EVE…
##  7   850 PAST          past simple A2    2               FORM: AF…
##  8   851 PAST          past simple A2    1               FORM: NE…
##  9   852 PAST          past simple A2    1               FORM: QU…
## 10   853 PAST          past simple A2    N/A             FORM: WI…
## # ... with 83 more rows, and 2 more variables: `Can-do statement` <chr>,
## #   Example <chr>
```
…
